{
  "openapi": "3.0.0",
  "info": {
    "version": "1.0.0",
    "title": "Poc OpenAPI",
    "description": "A simple API to illustrate OpenAPI concepts"
  },
  "components": {
    "securitySchemes": {
      "BasicAuth": {
        "type": "http",
        "scheme": "basic"
      }
    }
  },
/*  "security": [
    {
      "BasicAuth": []
    }
  ],*/
  "paths": {
    "/ping": {
      "get": {
        "operationId": "ping",
        "responses": {
          "200": {
            "description": "OK",
            "content": {
              "text/plain": {
                "schema": {
                  "type": "string",
                  "example": "pong"
                }
              }
            }
          }
        }
      }
  }
}